\relax 
\catcode`"\active
\providecommand\HyperFirstAtBeginDocument{\AtBeginDocument}
\HyperFirstAtBeginDocument{\ifx\hyper@anchor\@undefined
\global\let\oldcontentsline\contentsline
\gdef\contentsline#1#2#3#4{\oldcontentsline{#1}{#2}{#3}}
\global\let\oldnewlabel\newlabel
\gdef\newlabel#1#2{\newlabelxx{#1}#2}
\gdef\newlabelxx#1#2#3#4#5#6{\oldnewlabel{#1}{{#2}{#3}}}
\AtEndDocument{\ifx\hyper@anchor\@undefined
\let\contentsline\oldcontentsline
\let\newlabel\oldnewlabel
\fi}
\fi}
\global\let\hyper@last\relax 
\gdef\HyperFirstAtBeginDocument#1{#1}
\providecommand\HyField@AuxAddToFields[1]{}
\reset@newl@bel
\select@language{brazil}
\@writefile{toc}{\select@language{brazil}}
\@writefile{lof}{\select@language{brazil}}
\@writefile{lot}{\select@language{brazil}}
\@writefile{loa}{\addvspace {10\p@ }}
\@writefile{loa}{\addvspace {10\p@ }}
\@writefile{loa}{\addvspace {10\p@ }}
\@writefile{loa}{\addvspace {10\p@ }}
\@writefile{loa}{\addvspace {10\p@ }}
\@writefile{loa}{\addvspace {10\p@ }}
\newacro{AOS}[\AC@hyperlink{AOS}{AOS}]{Arquitetura Orientada a Servi\IeC {\c c}os}
\newacro{COS}[\AC@hyperlink{COS}{COS}]{Computa\IeC {\c c}\IeC {\~a}o Orientada a Servi\IeC {\c c}os}
\newacro{DS}[\AC@hyperlink{DS}{DS}]{Descritor de Servi\IeC {\c c}os}
\newacro{DV}[\AC@hyperlink{DV}{DV}]{Descritor de Variabilidades}
\newacro{WSR}[\AC@hyperlink{WSR}{WSR}]{Web Service Resolver}
\newacro{ELPS}[\AC@hyperlink{ELPS}{ELPS}]{Engenharia de Linha de Produto de Software}
\newacro{JAXB}[\AC@hyperlink{JAXB}{JAXB}]{Java Architecture for XML Binding}
\newacro{LPS}[\AC@hyperlink{LPS}{LPS}]{Linha de Produto de Software}
\newacroplural{LPS}[LPSs]{Linhas de Produto de Software}
\newacro{LPSD}[\AC@hyperlink{LPSD}{LPSD}]{Linha de Produto de Software Din\IeC {\^a}mica}
\newacroplural{LPSD}[LPSDs]{Linhas de Produto de Software Din\IeC {\^a}micas}
\newacro{LPSOS}[\AC@hyperlink{LPSOS}{LPSOS}]{Linha de Produto de Software Orientado a Servi\IeC {\c c}os}
\newacroplural{LPSOS}[LPSOSs]{Linhas de Produto de Software Orientado a Servi\IeC {\c c}os e Sens\IeC {\'\i }vel ao Contexto}
\newacro{LPSOSSC}[\AC@hyperlink{LPSOSSC}{LPSOSSC}]{Linha de Produto de Software Orientado a Servi\IeC {\c c}os e Sens\IeC {\'\i }vel ao Contexto}
\newacroplural{LPSOSSC}[LPSOSSCs]{Linhas de Produto de Software Orientado a Servi\IeC {\c c}os e Sens\IeC {\'\i }vel ao Contexto}
\newacro{RF}[\AC@hyperlink{RF}{RF}]{Requisito Funcional}
\newacroplural{RF}[RFs]{Requisitos Funcionais}
\newacro{RNF}[\AC@hyperlink{RNF}{RNF}]{Requisito N\IeC {\~a}o-Funcional}
\newacroplural{RNF}[RNFs]{Requisitos N\IeC {\~a}o-Funcionais}
\newacro{SSC}[\AC@hyperlink{SSC}{SSC}]{Sistema Sens\IeC {\'\i }vel ao Contexto}
\newacroplural{SSC}[SSCs]{Sistemas Sens\IeC {\'\i }veis ao Contexto}
\newacro{WSDL}[\AC@hyperlink{WSDL}{WSDL}]{Web Service Definition Language}
\newacro{XML}[\AC@hyperlink{XML}{XML}]{Extensible Markup Language}
\@writefile{loa}{\addvspace {10\p@ }}
\@input{chapters/1_introduction/introduction_main.aux}
\@input{chapters/2_literature_review/literature_review_main.aux}
\@input{chapters/3_the_solution/the_solution_main.aux}
\@input{chapters/4_case_study/case_study_main.aux}
\@input{chapters/5_conclusion/conclusion_main.aux}
\bibstyle{natbib}
\bibdata{references}
\bibcite{Alferez2011}{{1}{2011}{{Alferez and Pelechano}}{{Alferez and Pelechano}}}
\bibcite{Alhazbi2006}{{2}{2006}{{Alhazbi and Jantan}}{{Alhazbi and Jantan}}}
\bibcite{Ali2009}{{3}{2009}{{Ali and Babar}}{{Ali and Babar}}}
\bibcite{Alves2005}{{4}{2005}{{Alves {\em  et~al.}}}{{Alves, Matos, Cole, Borba, and Ramalho}}}
\bibcite{Bencomo2010}{{5}{2010}{{Bencomo {\em  et~al.}}}{{Bencomo, Lee, and Hallsteinsen}}}
\bibcite{Bencomo2012}{{6}{2012}{{Bencomo {\em  et~al.}}}{{Bencomo, Hallsteinsen, and Santana~de Almeida}}}
\bibcite{Carter2007}{{7}{2007}{{Carter}}{{Carter}}}
\bibcite{Clements2001}{{8}{2001}{{Clements and Northrop}}{{Clements and Northrop}}}
\bibcite{Clements2003}{{9}{2003}{{Clements {\em  et~al.}}}{{Clements, Garlan, Little, Nord, and Stafford}}}
\bibcite{Czarnecki2000}{{10}{2000}{{Czarnecki and Eisenecker}}{{Czarnecki and Eisenecker}}}
\bibcite{deCastroAlves2011}{{11}{2011}{{de~Castro~Alves}}{{de~Castro~Alves}}}
\bibcite{Demirkan2008}{{12}{2008}{{Demirkan {\em  et~al.}}}{{Demirkan, Kauffman, Vayghan, Fill, Karagiannis, and Maglio}}}
\@writefile{toc}{\contentsline {chapter}{Refer\IeC {\^e}ncias}{74}{section.5.2}}
\@writefile{loa}{\addvspace {10\p@ }}
\bibcite{Dhungana2007}{{13}{2007}{{Dhungana {\em  et~al.}}}{{Dhungana, Gr{\"u}nbacher, and Rabiser}}}
\bibcite{Dirksen2013}{{14}{2013}{{Dirksen}}{{Dirksen}}}
\bibcite{Elfatatry2004}{{15}{2004}{{Elfatatry and Layzell}}{{Elfatatry and Layzell}}}
\bibcite{Endrei2004}{{16}{2004}{{Endrei {\em  et~al.}}}{{Endrei, Ang, Arsanjani, Chua, Comte, Krogdahl, Luo, and Newling}}}
\bibcite{Erl2005}{{17}{2005}{{Erl}}{{Erl}}}
\bibcite{Erl2007}{{18}{2007}{{Erl}}{{Erl}}}
\bibcite{Escoffier2007}{{19}{2007}{{Escoffier {\em  et~al.}}}{{Escoffier, Hall, and Lalanda}}}
\bibcite{Galster2010}{{20}{2010}{{Galster}}{{Galster}}}
\bibcite{Gamma1995}{{21}{1995}{{Gamma {\em  et~al.}}}{{Gamma, Helm, Johnson, and Vlissides}}}
\bibcite{Gonzalez2010}{{22}{2010}{{Garcia-Gonzalez {\em  et~al.}}}{{Garcia-Gonzalez, Gacitua-Decar, and Pahl}}}
\bibcite{Gomaa2004}{{23}{2004}{{Gomaa}}{{Gomaa}}}
\bibcite{Gomaa2011}{{24}{2011}{{Gomaa and Hashimoto}}{{Gomaa and Hashimoto}}}
\bibcite{Hall2011}{{25}{2011}{{Hall {\em  et~al.}}}{{Hall, Pauls, McCulloch, and Savage}}}
\bibcite{Hallsteinsen2006}{{26}{2006}{{Hallsteinsen {\em  et~al.}}}{{Hallsteinsen, Stav, Solberg, and Floch}}}
\bibcite{Hallsteinsen2008}{{27}{2008}{{Hallsteinsen {\em  et~al.}}}{{Hallsteinsen, Hinchey, Park, and Schmid}}}
\bibcite{Istoan2009}{{28}{2009}{{Istoan {\em  et~al.}}}{{Istoan, Nain, Perrouin, and Jezequel}}}
\bibcite{Josuttis2007}{{29}{2007}{{Josuttis}}{{Josuttis}}}
\bibcite{Khezrian2010}{{30}{2010}{{Khezrian {\em  et~al.}}}{{Khezrian, Wan~Kadir, Ibrahim, Mohebbi, Munusamy, and Tabatabaei}}}
\bibcite{Kim2005}{{31}{2005}{{Kim {\em  et~al.}}}{{Kim, Jeong, and Park}}}
\bibcite{Kon2000}{{32}{2000}{{Kon {\em  et~al.}}}{{Kon, Rom\IeC {\'a}n, Liu, Mao, Yamane, Magalh\IeC {\~a}es, and Campbell}}}
\bibcite{Kruchten2006}{{33}{2006}{{Kruchten {\em  et~al.}}}{{Kruchten, Obbink, and Stafford}}}
\bibcite{Krueger2002}{{34}{2002}{{Krueger}}{{Krueger}}}
\bibcite{Krut2008}{{35}{2008}{{Krut and Cohen}}{{Krut and Cohen}}}
\bibcite{Lee2012}{{36}{2012}{{Lee {\em  et~al.}}}{{Lee, Kotonya, and Robinson}}}
\bibcite{Linden2007}{{37}{2007}{{Linden {\em  et~al.}}}{{Linden, Schmid, and Rommes}}}
\bibcite{Marinho2012}{{38}{2012}{{Marinho {\em  et~al.}}}{{Marinho, Andrade, Werner, Viana, Maia, Rocha, Teixeira, Filho, Dantas, Lima, and Aguiar}}}
\bibcite{McGovern2003}{{39}{2003}{{McGovern {\em  et~al.}}}{{McGovern, Tyagi, Stevens, and Mathew}}}
\bibcite{Medeiros2010}{{40}{2010}{{Medeiros}}{{Medeiros}}}
\bibcite{WSDISCOVERY2005}{{41}{2005}{{Microsoft Corporation}}{{Microsoft Corporation}}}
\bibcite{Niebuhr2009}{{42}{2009}{{Niebuhr {\em  et~al.}}}{{Niebuhr, Rausch, Klein, Reichmann, and Schmid}}}
\bibcite{Oreizy1998}{{43}{1998}{{Oreizy {\em  et~al.}}}{{Oreizy, Medvidovic, and Taylor}}}
\bibcite{Oreizy1999}{{44}{1999}{{Oreizy {\em  et~al.}}}{{Oreizy, Gorlick, Taylor, Heimhigner, Johnson, Medvidovic, Quilici, Rosenblum, and Wolf}}}
\bibcite{Papazoglou2003}{{45}{2003}{{Papazoglou and Georgakopoulos}}{{Papazoglou and Georgakopoulos}}}
\bibcite{Parra2009}{{46}{2009}{{Parra {\em  et~al.}}}{{Parra, Blanc, and Duchien}}}
\bibcite{Parra2012}{{47}{2012}{{Parra {\em  et~al.}}}{{Parra, Quinton, and Duchien}}}
\bibcite{Pohl2005}{{48}{2005}{{Pohl {\em  et~al.}}}{{Pohl, B\"{o}ckle, and Linden}}}
\bibcite{Raatikainen2007}{{49}{2007}{{Raatikainen and Mannisto}}{{Raatikainen and Mannisto}}}
\bibcite{Ribeiro2010}{{50}{2010}{{Ribeiro}}{{Ribeiro}}}
\bibcite{Rocha2007}{{51}{2007}{{Rocha {\em  et~al.}}}{{Rocha, Castro, Machado, and Andrade}}}
\bibcite{Rosenmuller2011}{{52}{2011}{{Rosenm\"{u}ller {\em  et~al.}}}{{Rosenm\"{u}ller, Siegmund, Pukall, and Apel}}}
\bibcite{Segura2007}{{53}{2007}{{Segura {\em  et~al.}}}{{Segura, Benavides, Ruiz-Cort\'es, and Trinidad}}}
\bibcite{Shaw1996}{{54}{1996}{{Shaw and Garlan}}{{Shaw and Garlan}}}
\bibcite{Jackson2013}{{55}{2013}{{Silva {\em  et~al.}}}{{Silva, Silva, Nascimento, Martins, and Garcia}}}
\bibcite{Smith2009}{{56}{2009}{{Smith and Lewis}}{{Smith and Lewis}}}
\bibcite{Tan2001}{{57}{2001}{{Tan}}{{Tan}}}
\bibcite{Tiwari2012}{{58}{2012}{{Tiwari {\em  et~al.}}}{{Tiwari, Rathore, and Gupta}}}
\bibcite{Trujillo2007}{{59}{2007}{{Trujillo and Kaestner}}{{Trujillo and Kaestner}}}
\bibcite{Ullah2011}{{60}{2011}{{Ullah {\em  et~al.}}}{{Ullah, Iqbal, and Khan}}}
\bibcite{Viana2008}{{61}{2008}{{Viana and Andrade}}{{Viana and Andrade}}}
\bibcite{Wolfinger2008}{{62}{2008}{{Wolfinger {\em  et~al.}}}{{Wolfinger, Reiter, Dhungana, Grunbacher, and Prahofer}}}
\bibcite{Ye2007}{{63}{2007}{{Ye {\em  et~al.}}}{{Ye, Moon, Kim, and Yeom}}}
\bibcite{Yu2008}{{64}{2008}{{Yu and Reiff-Marganiec}}{{Yu and Reiff-Marganiec}}}
\bibcite{Yu2010}{{65}{2010}{{Yu {\em  et~al.}}}{{Yu, Lalanda, and Bourret}}}
\bibcite{Ziyun2011}{{66}{2011}{{Zi-yun and Ru-long}}{{Zi-yun and Ru-long}}}
\@writefile{toc}{\contentsline {chapter}{Ap\IeC {\^e}ndice}{81}{section*.34}}
\@input{appendix/ap_appendix.aux}
