This is BibTeX, Version 0.99d (TeX Live 2011)
Capacity: max_strings=35307, hash_size=35307, hash_prime=30011
The top-level auxiliary file: main.aux
A level-1 auxiliary file: chapters/1_introduction/introduction_main.aux
A level-1 auxiliary file: chapters/2_literature_review/literature_review_main.aux
A level-1 auxiliary file: chapters/3_the_solution/the_solution_main.aux
A level-1 auxiliary file: chapters/4_case_study/case_study_main.aux
A level-1 auxiliary file: chapters/5_conclusion/conclusion_main.aux
The style file: natbib.bst
A level-1 auxiliary file: appendix/ap_appendix.aux
Database file #1: references.bib
Warning--entry type for "WSDISCOVERY2005" isn't style-file defined
--line 5 of file references.bib
I was expecting a `,' or a `}'---line 229 of file references.bib
 :  
 :  doi = {10.1142/s0218843008001816},
(Error may have been on previous line)
I'm skipping whatever remains of this entry
Warning--entry type for "Medeiros2010" isn't style-file defined
--line 850 of file references.bib
Warning--entry type for "Ribeiro2010" isn't style-file defined
--line 859 of file references.bib
A bad cross reference---entry "Galster2010"
refers to entry "DBLP:conf/splc/2010w", which doesn't exist
A bad cross reference---entry "Dhungana2007"
refers to entry "DBLP:conf/ifip8-1/2007", which doesn't exist
A bad cross reference---entry "Bencomo2010"
refers to entry "DBLP:conf/splc/2010w", which doesn't exist
A bad cross reference---entry "Krut2008"
refers to entry "DBLP:conf/splc/2008", which doesn't exist
Warning--I didn't find a database entry for "DBLP:conf/splc/2010w"
Warning--I didn't find a database entry for "DBLP:conf/ifip8-1/2007"
Warning--I didn't find a database entry for "DBLP:conf/splc/2008"
Name 1 in "Raatikainen, M., Myllarniemi, V., and Mannisto, T" has a comma at the end for entry Raatikainen2007
while executing---line 1207 of file natbib.bst
Too many commas in name 1 of "Raatikainen, M., Myllarniemi, V., and Mannisto, T" for entry Raatikainen2007
while executing---line 1207 of file natbib.bst
Name 1 in "Raatikainen, M., Myllarniemi, V., and Mannisto, T" has a comma at the end for entry Raatikainen2007
while executing---line 1207 of file natbib.bst
Too many commas in name 1 of "Raatikainen, M., Myllarniemi, V., and Mannisto, T" for entry Raatikainen2007
while executing---line 1207 of file natbib.bst
Name 1 in "Trujillo, S., Apel, S., and Kaestner, C." has a comma at the end for entry Trujillo2007
while executing---line 1207 of file natbib.bst
Too many commas in name 1 of "Trujillo, S., Apel, S., and Kaestner, C." for entry Trujillo2007
while executing---line 1207 of file natbib.bst
Name 1 in "Trujillo, S., Apel, S., and Kaestner, C." has a comma at the end for entry Trujillo2007
while executing---line 1207 of file natbib.bst
Too many commas in name 1 of "Trujillo, S., Apel, S., and Kaestner, C." for entry Trujillo2007
while executing---line 1207 of file natbib.bst
Warning--there's a number but no volume in Marinho2012
Name 1 in "Raatikainen, M., Myllarniemi, V., and Mannisto, T" has a comma at the end for entry Raatikainen2007
while executing---line 1279 of file natbib.bst
Too many commas in name 1 of "Raatikainen, M., Myllarniemi, V., and Mannisto, T" for entry Raatikainen2007
while executing---line 1279 of file natbib.bst
Name 1 in "Raatikainen, M., Myllarniemi, V., and Mannisto, T" has a comma at the end for entry Raatikainen2007
while executing---line 1279 of file natbib.bst
Too many commas in name 1 of "Raatikainen, M., Myllarniemi, V., and Mannisto, T" for entry Raatikainen2007
while executing---line 1279 of file natbib.bst
Name 1 in "Trujillo, S., Apel, S., and Kaestner, C." has a comma at the end for entry Trujillo2007
while executing---line 1279 of file natbib.bst
Too many commas in name 1 of "Trujillo, S., Apel, S., and Kaestner, C." for entry Trujillo2007
while executing---line 1279 of file natbib.bst
Name 1 in "Trujillo, S., Apel, S., and Kaestner, C." has a comma at the end for entry Trujillo2007
while executing---line 1279 of file natbib.bst
Too many commas in name 1 of "Trujillo, S., Apel, S., and Kaestner, C." for entry Trujillo2007
while executing---line 1279 of file natbib.bst
You've used 66 entries,
            2378 wiz_defined-function locations,
            958 strings with 17726 characters,
and the built_in function-call counts, 33817 in all, are:
= -- 3297
> -- 1833
< -- 59
+ -- 551
- -- 531
* -- 2783
:= -- 5669
add.period$ -- 305
call.type$ -- 66
change.case$ -- 397
chr.to.int$ -- 66
cite$ -- 67
duplicate$ -- 1546
empty$ -- 2238
format.name$ -- 629
if$ -- 7059
int.to.chr$ -- 1
int.to.str$ -- 0
missing$ -- 78
newline$ -- 331
num.names$ -- 266
pop$ -- 584
preamble$ -- 1
purify$ -- 412
quote$ -- 0
skip$ -- 1079
stack$ -- 0
substring$ -- 1830
swap$ -- 412
text.length$ -- 30
text.prefix$ -- 0
top$ -- 0
type$ -- 546
warning$ -- 1
while$ -- 275
width$ -- 0
write$ -- 875
(There were 21 error messages)
