\relax 
\citation{Kim2005}
\citation{Niebuhr2009}
\citation{Hallsteinsen2006}
\citation{Kim2005}
\citation{Oreizy1999}
\citation{Rosenmuller2011}
\citation{Alferez2011}
\citation{Galster2010}
\citation{Hallsteinsen2008}
\citation{Dhungana2007}
\citation{Hallsteinsen2006}
\citation{Kim2005}
\citation{Wolfinger2008}
\@writefile{loa}{\addvspace {10\p@ }}
\@writefile{toc}{\contentsline {chapter}{\numberline {1}Introdu\IeC {\c c}\IeC {\~a}o}{1}{chapter.1}}
\@writefile{lof}{\addvspace {10\p@ }}
\@writefile{lot}{\addvspace {10\p@ }}
\newlabel{ch:introducao}{{1}{1}{Introdução\relax }{chapter.1}{}}
\@writefile{toc}{\contentsline {section}{\numberline {1.1}Motiva\IeC {\c c}\IeC {\~a}o}{1}{section.1.1}}
\newlabel{sc:motivacao}{{1.1}{1}{Motivação\relax }{section.1.1}{}}
\@writefile{brf}{\backcite{Kim2005}{{1}{1.1}{section.1.1}}}
\@writefile{brf}{\backcite{Niebuhr2009}{{1}{1.1}{section.1.1}}}
\undonewlabel{acro:SSC}
\newlabel{acro:SSC}{{1.1}{1}{Motivação\relax }{section*.8}{}}
\acronymused{SSC}
\@writefile{brf}{\backcite{Hallsteinsen2006}{{1}{1.1}{section.1.1}}}
\@writefile{brf}{\backcite{Kim2005}{{1}{1.1}{section.1.1}}}
\@writefile{brf}{\backcite{Oreizy1999}{{1}{1.1}{section.1.1}}}
\undonewlabel{acro:LPS}
\newlabel{acro:LPS}{{1.1}{1}{Motivação\relax }{section*.9}{}}
\acronymused{LPS}
\acronymused{LPS}
\@writefile{brf}{\backcite{Rosenmuller2011}{{1}{1.1}{section.1.1}}}
\@writefile{brf}{\backcite{Alferez2011}{{1}{1.1}{section.1.1}}}
\acronymused{LPS}
\@writefile{brf}{\backcite{Galster2010}{{1}{1.1}{section.1.1}}}
\@writefile{brf}{\backcite{Hallsteinsen2008}{{1}{1.1}{section.1.1}}}
\citation{Hallsteinsen2008}
\citation{Bencomo2012}
\citation{Bencomo2010}
\citation{Yu2010}
\citation{Ye2007}
\citation{Demirkan2008}
\citation{Galster2010}
\citation{Raatikainen2007}
\citation{Segura2007}
\citation{Smith2009}
\citation{Trujillo2007}
\citation{Krut2008}
\citation{Galster2010}
\citation{Lee2012}
\citation{Ali2009}
\@writefile{brf}{\backcite{Dhungana2007}{{2}{1.1}{section.1.1}}}
\@writefile{brf}{\backcite{Hallsteinsen2006}{{2}{1.1}{section.1.1}}}
\@writefile{brf}{\backcite{Kim2005}{{2}{1.1}{section.1.1}}}
\@writefile{brf}{\backcite{Wolfinger2008}{{2}{1.1}{section.1.1}}}
\acronymused{LPS}
\undonewlabel{acro:LPSD}
\newlabel{acro:LPSD}{{1.1}{2}{Motivação\relax }{section*.10}{}}
\acronymused{LPSD}
\@writefile{brf}{\backcite{Hallsteinsen2008}{{2}{1.1}{section.1.1}}}
\acronymused{LPS}
\@writefile{brf}{\backcite{Bencomo2012}{{2}{1.1}{section.1.1}}}
\acronymused{LPSD}
\acronymused{LPS}
\@writefile{brf}{\backcite{Bencomo2010}{{2}{1.1}{section.1.1}}}
\acronymused{LPS}
\@writefile{brf}{\backcite{Yu2010}{{2}{1.1}{section.1.1}}}
\@writefile{brf}{\backcite{Ye2007}{{2}{1.1}{section.1.1}}}
\@writefile{brf}{\backcite{Demirkan2008}{{2}{1.1}{section.1.1}}}
\@writefile{brf}{\backcite{Galster2010}{{2}{1.1}{section.1.1}}}
\@writefile{brf}{\backcite{Raatikainen2007}{{2}{1.1}{section.1.1}}}
\@writefile{brf}{\backcite{Segura2007}{{2}{1.1}{section.1.1}}}
\@writefile{brf}{\backcite{Smith2009}{{2}{1.1}{section.1.1}}}
\@writefile{brf}{\backcite{Trujillo2007}{{2}{1.1}{section.1.1}}}
\undonewlabel{acro:AOS}
\newlabel{acro:AOS}{{1.1}{2}{Motivação\relax }{section*.11}{}}
\acronymused{AOS}
\undonewlabel{acro:LPSOS}
\newlabel{acro:LPSOS}{{1.1}{2}{Motivação\relax }{section*.12}{}}
\acronymused{LPSOS}
\@writefile{brf}{\backcite{Krut2008}{{2}{1.1}{section.1.1}}}
\acronymused{LPS}
\@writefile{brf}{\backcite{Galster2010}{{2}{1.1}{section.1.1}}}
\acronymused{LPSOS}
\acronymused{LPSD}
\undonewlabel{acro:ELPS}
\newlabel{acro:ELPS}{{1.1}{2}{Motivação\relax }{section*.13}{}}
\acronymused{ELPS}
\@writefile{brf}{\backcite{Lee2012}{{2}{1.1}{section.1.1}}}
\citation{Kon2000}
\citation{Rocha2007}
\citation{Viana2008}
\citation{Marinho2012}
\citation{Marinho2012}
\citation{Parra2012}
\citation{Erl2007}
\citation{Pohl2005}
\citation{Alferez2011}
\@writefile{brf}{\backcite{Ali2009}{{3}{1.1}{section.1.1}}}
\@writefile{brf}{\backcite{Kon2000}{{3}{1.1}{section.1.1}}}
\@writefile{brf}{\backcite{Rocha2007}{{3}{1.1}{section.1.1}}}
\@writefile{brf}{\backcite{Viana2008}{{3}{1.1}{section.1.1}}}
\@writefile{brf}{\backcite{Marinho2012}{{3}{1.1}{section.1.1}}}
\@writefile{brf}{\backcite{Marinho2012}{{3}{1.1}{section.1.1}}}
\@writefile{brf}{\backcite{Parra2012}{{3}{1.1}{section.1.1}}}
\acronymused{LPS}
\acronymused{LPS}
\acronymused{AOS}
\acronymused{AOS}
\acronymused{LPS}
\acronymused{LPS}
\acronymused{AOS}
\@writefile{brf}{\backcite{Erl2007}{{3}{1.1}{section.1.1}}}
\acronymused{LPSOSSC}
\@writefile{toc}{\contentsline {section}{\numberline {1.2}Problem\IeC {\'a}tica}{3}{section.1.2}}
\newlabel{sec:problematica}{{1.2}{3}{Problemática\relax }{section.1.2}{}}
\acronymused{LPS}
\acronymused{SSC}
\@writefile{brf}{\backcite{Pohl2005}{{3}{1.2}{section.1.2}}}
\acronymused{LPS}
\acronymused{LPSOSSC}
\citation{Erl2007}
\citation{Hallsteinsen2006}
\citation{Kim2005}
\citation{Oreizy1999}
\@writefile{brf}{\backcite{Alferez2011}{{4}{1.2}{section.1.2}}}
\@writefile{brf}{\backcite{Erl2007}{{4}{1.2}{section.1.2}}}
\acronymused{AOS}
\newlabel{sc:problematica_p1}{{i}{4}{Problemática\relax }{Item.1}{}}
\newlabel{sc:problematica_p2}{{ii}{4}{Problemática\relax }{Item.2}{}}
\acronymused{SSC}
\@writefile{brf}{\backcite{Hallsteinsen2006}{{4}{1.2}{Item.2}}}
\@writefile{brf}{\backcite{Kim2005}{{4}{1.2}{Item.2}}}
\@writefile{brf}{\backcite{Oreizy1999}{{4}{1.2}{Item.2}}}
\newlabel{sc:problematica_p3}{{iii}{4}{Problemática\relax }{Item.3}{}}
\undonewlabel{acro:LPSOSSC}
\newlabel{acro:LPSOSSC}{{1.2}{4}{Problemática\relax }{section*.14}{}}
\acronymused{LPSOSSC}
\acronymused{LPSOSSC}
\citation{Gomaa2011}
\citation{Escoffier2007}
\@writefile{toc}{\contentsline {section}{\numberline {1.3}Vis\IeC {\~a}o Geral da Solu\IeC {\c c}\IeC {\~a}o}{5}{section.1.3}}
\newlabel{sec:intro:visao_geral_solucao}{{1.3}{5}{Visão Geral da Solução\relax }{section.1.3}{}}
\acronymused{LPSOSSC}
\@writefile{brf}{\backcite{Gomaa2011}{{5}{1.3}{section.1.3}}}
\@writefile{brf}{\backcite{Escoffier2007}{{5}{1.3}{section.1.3}}}
\@writefile{lof}{\contentsline {figure}{\numberline {1.1}{\ignorespaces DYMOS: Arquitetura Externa}}{6}{figure.1.1}}
\newlabel{fg:layers}{{1.1}{6}{DYMOS: Arquitetura Externa\relax }{figure.1.1}{}}
\@writefile{toc}{\contentsline {section}{\numberline {1.4}Escopo Negativo}{7}{section.1.4}}
\newlabel{sc:escopo_negativo}{{1.4}{7}{Escopo Negativo\relax }{section.1.4}{}}
\acronymused{LPSOSSC}
\@writefile{toc}{\contentsline {section}{\numberline {1.5}Organiza\IeC {\c c}\IeC {\~a}o da Disserta\IeC {\c c}\IeC {\~a}o}{8}{section.1.5}}
\newlabel{sc:organizacao_dissertacao}{{1.5}{8}{Organização da Dissertação\relax }{section.1.5}{}}
\@setckpt{chapters/1_introduction/introduction_main}{
\setcounter{page}{9}
\setcounter{equation}{0}
\setcounter{enumi}{3}
\setcounter{enumii}{0}
\setcounter{enumiii}{0}
\setcounter{enumiv}{0}
\setcounter{footnote}{7}
\setcounter{mpfootnote}{0}
\setcounter{part}{0}
\setcounter{chapter}{1}
\setcounter{section}{5}
\setcounter{subsection}{0}
\setcounter{subsubsection}{0}
\setcounter{paragraph}{0}
\setcounter{subparagraph}{0}
\setcounter{figure}{1}
\setcounter{table}{0}
\setcounter{parentequation}{0}
\setcounter{@pps}{0}
\setcounter{@ppsavesec}{0}
\setcounter{@ppsaveapp}{0}
\setcounter{Def}{0}
\setcounter{Axi}{0}
\setcounter{Conj}{0}
\setcounter{Lem}{0}
\setcounter{Theo}{0}
\setcounter{Prop}{0}
\setcounter{Cor}{0}
\setcounter{NAT@ctr}{0}
\setcounter{AlgoLine}{0}
\setcounter{algocfline}{0}
\setcounter{algocfproc}{0}
\setcounter{algocf}{0}
\setcounter{lstnumber}{1}
\setcounter{float@type}{8}
\setcounter{Item}{3}
\setcounter{Hfootnote}{7}
\setcounter{bookmark@seq@number}{6}
\setcounter{lstlisting}{0}
\setcounter{section@level}{0}
}
