\relax 
\citation{Bennett2000}
\citation{Sommerville2007}
\citation{Huff1990}
\citation{Moad1990}
\citation{Eastwood1993}
\citation{Erlikh2000}
\citation{Sommerville2007}
\citation{Anvik2005}
\@writefile{toc}{\contentsline {chapter}{\numberline {1}Introduction}{1}{chapter.1}}
\@writefile{lof}{\addvspace {10\p@ }}
\@writefile{lot}{\addvspace {10\p@ }}
\newlabel{ch:introduction}{{1}{1}{Introduction\relax }{chapter.1}{}}
\undonewlabel{acro:SCM}
\newlabel{acro:SCM}{{1}{1}{Introduction\relax }{section*.7}{}}
\acronymused{SCM}
\citation{Anvik2006a}
\citation{Song2006}
\citation{Ko2006}
\citation{Sandusky2004}
\citation{Hiew2006}
\@writefile{toc}{\contentsline {section}{\numberline {1.1}Motivation}{2}{section.1.1}}
\newlabel{sc:motivation}{{1.1}{2}{Motivation\relax }{section.1.1}{}}
\@writefile{lof}{\contentsline {figure}{\numberline {1.1}{\ignorespaces Example of a bug report}}{3}{figure.1.1}}
\newlabel{fg:tracbug}{{1.1}{3}{Example of a bug report\relax }{figure.1.1}{}}
\citation{Almeida2004}
\@writefile{toc}{\contentsline {section}{\numberline {1.2}Problem Statement}{4}{section.1.2}}
\newlabel{sc:problem}{{1.2}{4}{Problem Statement\relax }{section.1.2}{}}
\@writefile{toc}{\contentsline {section}{\numberline {1.3}Overview of the Proposed Solution}{4}{section.1.3}}
\newlabel{sc:solution}{{1.3}{4}{Overview of the Proposed Solution\relax }{section.1.3}{}}
\undonewlabel{acro:BAST}
\newlabel{acro:BAST}{{1.3}{4}{Overview of the Proposed Solution\relax }{section*.8}{}}
\acronymused{BAST}
\@writefile{toc}{\contentsline {subsection}{\numberline {1.3.1}Context}{4}{subsection.1.3.1}}
\undonewlabel{acro:RiSE}
\newlabel{acro:RiSE}{{1.3.1}{4}{Context\relax }{section*.9}{}}
\acronymused{RiSE}
\citation{Almeida2004}
\citation{Nascimento2008}
\citation{Alvaro2006}
\citation{Garcia2008a}
\citation{Mascena2006}
\citation{Santos2006}
\citation{Vanderlei2007}
\citation{Durao2008}
\citation{Mendes2008}
\citation{Martins2008}
\citation{Brito2007}
\citation{Filho2008}
\citation{CavalcantiFISL2008}
\@writefile{lof}{\contentsline {figure}{\numberline {1.2}{\ignorespaces RiSE Labs Influences}}{5}{figure.1.2}}
\newlabel{fg:rise-spiral}{{1.2}{5}{RiSE Labs Influences\relax }{figure.1.2}{}}
\citation{Pohl2005}
\citation{Runeson2007}
\undonewlabel{acro:C.E.S.A.R.}
\newlabel{acro:C.E.S.A.R.}{{1.3.1}{6}{Context\relax }{section*.10}{}}
\acronymused{C.E.S.A.R.}
\undonewlabel{acro:BTT}
\newlabel{acro:BTT}{{1.3.1}{6}{Context\relax }{section*.11}{}}
\acronymused{BTT}
\@writefile{lof}{\contentsline {figure}{\numberline {1.3}{\ignorespaces RiSE Labs Projects}}{6}{figure.1.3}}
\newlabel{fg:rise-projects}{{1.3}{6}{RiSE Labs Projects\relax }{figure.1.3}{}}
\@writefile{toc}{\contentsline {subsection}{\numberline {1.3.2}Outline of the Proposal}{6}{subsection.1.3.2}}
\citation{Salton1975}
\citation{Salton1975}
\citation{Baeza1999}
\@writefile{toc}{\contentsline {section}{\numberline {1.4}Out of Scope}{7}{section.1.4}}
\newlabel{sc:outofscope}{{1.4}{7}{Out of Scope\relax }{section.1.4}{}}
\@writefile{toc}{\contentsline {section}{\numberline {1.5}Statement of the Contributions}{7}{section.1.5}}
\newlabel{sc:contributions}{{1.5}{7}{Statement of the Contributions\relax }{section.1.5}{}}
\acronymused{BAST}
\@setckpt{chapters/introduction/main}{
\setcounter{page}{9}
\setcounter{equation}{0}
\setcounter{enumi}{0}
\setcounter{enumii}{0}
\setcounter{enumiii}{0}
\setcounter{enumiv}{0}
\setcounter{footnote}{0}
\setcounter{mpfootnote}{0}
\setcounter{part}{0}
\setcounter{chapter}{1}
\setcounter{section}{5}
\setcounter{subsection}{0}
\setcounter{subsubsection}{0}
\setcounter{paragraph}{0}
\setcounter{subparagraph}{0}
\setcounter{figure}{3}
\setcounter{table}{0}
\setcounter{parentequation}{0}
\setcounter{@pps}{0}
\setcounter{@ppsavesec}{0}
\setcounter{@ppsaveapp}{0}
\setcounter{Def}{0}
\setcounter{Axi}{0}
\setcounter{Conj}{0}
\setcounter{Lem}{0}
\setcounter{Theo}{0}
\setcounter{Prop}{0}
\setcounter{Cor}{0}
\setcounter{NAT@ctr}{0}
\setcounter{Item}{0}
\setcounter{Hfootnote}{0}
\setcounter{bookmark@seq@number}{11}
\setcounter{section@level}{0}
}
