\relax 
\citation{Clements2001}
\citation{Clements2001}
\citation{Gomaa2004}
\citation{Linden2007}
\citation{Linden2007}
\@writefile{loa}{\addvspace {10\p@ }}
\@writefile{toc}{\contentsline {chapter}{\numberline {2}Revis\IeC {\~a}o da Literatura}{9}{chapter.2}}
\@writefile{lof}{\addvspace {10\p@ }}
\@writefile{lot}{\addvspace {10\p@ }}
\newlabel{ch:literature_review}{{2}{9}{Revisão da Literatura\relax }{chapter.2}{}}
\@writefile{toc}{\contentsline {section}{\numberline {2.1}Linhas de Produto de Software: Uma vis\IeC {\~a}o geral}{9}{section.2.1}}
\newlabel{sc:linhas_de_produto_de_software}{{2.1}{9}{Linhas de Produto de Software: Uma visão geral\relax }{section.2.1}{}}
\acronymused{ELPS}
\@writefile{brf}{\backcite{Clements2001}{{9}{2.1}{section.2.1}}}
\@writefile{brf}{\backcite{Clements2001}{{9}{2.1}{section.2.1}}}
\acronymused{ELPS}
\@writefile{brf}{\backcite{Gomaa2004}{{9}{2.1}{section.2.1}}}
\citation{Pohl2005}
\@writefile{lof}{\contentsline {figure}{\numberline {2.1}{\ignorespaces Custos do desenvolvimento de uma Linha de Produto}}{10}{figure.2.1}}
\@writefile{brf}{\backcite{Linden2007}{{10}{2.1}{figure.2.1}}}
\newlabel{fg:literature_review:lps_cost}{{2.1}{10}{Custos do desenvolvimento de uma Linha de Produto\relax }{figure.2.1}{}}
\acronymused{ELPS}
\acronymused{ELPS}
\@writefile{toc}{\contentsline {subsection}{\numberline {2.1.1}Motiva\IeC {\c c}\IeC {\~a}o}{10}{subsection.2.1.1}}
\newlabel{sc:linhas_de_produto_de_software:motivacao}{{2.1.1}{10}{Motivação\relax }{subsection.2.1.1}{}}
\acronymused{ELPS}
\@writefile{brf}{\backcite{Pohl2005}{{10}{2.1.1}{subsection.2.1.1}}}
\citation{Pohl2005}
\citation{Pohl2005}
\citation{Linden2007}
\acronymused{LPS}
\acronymused{LPS}
\acronymused{LPS}
\acronymused{LPS}
\@writefile{brf}{\backcite{Pohl2005}{{11}{2.1.1}{subsection.2.1.1}}}
\acronymused{LPS}
\acronymused{LPS}
\acronymused{ELPS}
\@writefile{toc}{\contentsline {subsection}{\numberline {2.1.2}Engenharia de Linha de Produto de Software}{11}{subsection.2.1.2}}
\newlabel{sc:linhas_de_produto_de_software:elps}{{2.1.2}{11}{Engenharia de Linha de Produto de Software\relax }{subsection.2.1.2}{}}
\acronymused{ELPS}
\@writefile{brf}{\backcite{Pohl2005}{{11}{2.1.2}{subsection.2.1.2}}}
\@writefile{brf}{\backcite{Linden2007}{{11}{2.1.2}{subsection.2.1.2}}}
\citation{Pohl2005}
\citation{Clements2001}
\citation{Clements2001}
\citation{Clements2001}
\acronymused{LPS}
\@writefile{brf}{\backcite{Pohl2005}{{12}{2.1.2}{subsection.2.1.2}}}
\@writefile{brf}{\backcite{Clements2001}{{12}{2.1.2}{subsection.2.1.2}}}
\acronymused{ELPS}
\@writefile{lof}{\contentsline {figure}{\numberline {2.2}{\ignorespaces Atividades Essenciais na Engenharia de Linha de Produto de Software}}{12}{figure.2.2}}
\@writefile{brf}{\backcite{Clements2001}{{12}{2.2}{figure.2.2}}}
\newlabel{fg:literature_review:spl_activities}{{2.2}{12}{Atividades Essenciais na Engenharia de Linha de Produto de Software\relax }{figure.2.2}{}}
\citation{Clements2001}
\citation{Pohl2005}
\citation{Linden2007}
\citation{Krueger2002}
\@writefile{brf}{\backcite{Clements2001}{{13}{2.1.2}{figure.2.2}}}
\@writefile{brf}{\backcite{Pohl2005}{{13}{2.1.2}{figure.2.2}}}
\acronymused{LPS}
\@writefile{toc}{\contentsline {subsection}{\numberline {2.1.3}Modelos de Ado\IeC {\c c}\IeC {\~a}o de Linhas de Produto de Software}{13}{subsection.2.1.3}}
\newlabel{sc:linhas_de_produto_de_software:modelos_adocao}{{2.1.3}{13}{Modelos de Adoção de Linhas de Produto de Software\relax }{subsection.2.1.3}{}}
\acronymused{LPS}
\acronymused{LPS}
\@writefile{brf}{\backcite{Linden2007}{{13}{2.1.3}{subsection.2.1.3}}}
\acronymused{LPS}
\@writefile{brf}{\backcite{Krueger2002}{{13}{2.1.3}{subsection.2.1.3}}}
\acronymused{LPS}
\citation{Alves2005}
\citation{Clements2001}
\citation{Krueger2002}
\citation{Linden2007}
\citation{Pohl2005}
\citation{Rosenmuller2011}
\citation{Alferez2011}
\citation{Galster2010}
\citation{Hallsteinsen2008}
\citation{Dhungana2007}
\citation{Hallsteinsen2006}
\citation{Kim2005}
\citation{Wolfinger2008}
\acronymused{LPS}
\@writefile{brf}{\backcite{Alves2005}{{14}{2.1.3}{subsection.2.1.3}}}
\@writefile{brf}{\backcite{Clements2001}{{14}{2.1.3}{subsection.2.1.3}}}
\@writefile{brf}{\backcite{Krueger2002}{{14}{2.1.3}{subsection.2.1.3}}}
\acronymused{LPS}
\@writefile{brf}{\backcite{Linden2007}{{14}{2.1.3}{subsection.2.1.3}}}
\@writefile{brf}{\backcite{Pohl2005}{{14}{2.1.3}{subsection.2.1.3}}}
\@writefile{toc}{\contentsline {subsection}{\numberline {2.1.4}Linhas de Produto de Software Din\IeC {\^a}micas}{14}{subsection.2.1.4}}
\newlabel{sc:linhas_de_produto_de_software:modelos_adocao}{{2.1.4}{14}{Linhas de Produto de Software Dinâmicas\relax }{subsection.2.1.4}{}}
\acronymused{LPS}
\acronymused{LPS}
\@writefile{brf}{\backcite{Rosenmuller2011}{{14}{2.1.4}{subsection.2.1.4}}}
\citation{Hallsteinsen2008}
\citation{Hallsteinsen2008}
\citation{Bencomo2012}
\citation{Bencomo2010}
\citation{Raatikainen2007}
\citation{Segura2007}
\citation{Trujillo2007}
\citation{Krut2008}
\@writefile{brf}{\backcite{Alferez2011}{{15}{2.1.4}{subsection.2.1.4}}}
\acronymused{LPS}
\@writefile{brf}{\backcite{Galster2010}{{15}{2.1.4}{subsection.2.1.4}}}
\@writefile{brf}{\backcite{Hallsteinsen2008}{{15}{2.1.4}{subsection.2.1.4}}}
\@writefile{brf}{\backcite{Dhungana2007}{{15}{2.1.4}{subsection.2.1.4}}}
\@writefile{brf}{\backcite{Hallsteinsen2006}{{15}{2.1.4}{subsection.2.1.4}}}
\@writefile{brf}{\backcite{Kim2005}{{15}{2.1.4}{subsection.2.1.4}}}
\@writefile{brf}{\backcite{Wolfinger2008}{{15}{2.1.4}{subsection.2.1.4}}}
\acronymused{LPSD}
\acronymused{LPS}
\@writefile{brf}{\backcite{Hallsteinsen2008}{{15}{2.1.4}{subsection.2.1.4}}}
\acronymused{LPS}
\acronymused{LPSD}
\@writefile{brf}{\backcite{Hallsteinsen2008}{{15}{2.1.4}{subsection.2.1.4}}}
\acronymused{LPS}
\@writefile{brf}{\backcite{Bencomo2012}{{15}{2.1.4}{subsection.2.1.4}}}
\acronymused{LPSD}
\acronymused{LPS}
\@writefile{brf}{\backcite{Bencomo2010}{{15}{2.1.4}{subsection.2.1.4}}}
\acronymused{LPSD}
\@writefile{toc}{\contentsline {section}{\numberline {2.2}Computa\IeC {\c c}\IeC {\~a}o Orientada a Servi\IeC {\c c}os: Uma vis\IeC {\~a}o geral}{15}{section.2.2}}
\newlabel{sc:lps_orientado_a_servicos}{{2.2}{15}{Computação Orientada a Serviços: Uma visão geral\relax }{section.2.2}{}}
\@writefile{brf}{\backcite{Raatikainen2007}{{15}{2.2}{section.2.2}}}
\@writefile{brf}{\backcite{Segura2007}{{15}{2.2}{section.2.2}}}
\@writefile{brf}{\backcite{Trujillo2007}{{15}{2.2}{section.2.2}}}
\citation{Papazoglou2003}
\citation{Raatikainen2007}
\citation{Papazoglou2003}
\citation{Erl2007}
\citation{Elfatatry2004}
\citation{Carter2007}
\citation{Endrei2004}
\acronymused{LPS}
\acronymused{LPSOS}
\@writefile{brf}{\backcite{Krut2008}{{16}{2.2}{section.2.2}}}
\acronymused{LPS}
\@writefile{toc}{\contentsline {subsection}{\numberline {2.2.1}Arquiteturas Orientadas a Servi\IeC {\c c}os}{16}{subsection.2.2.1}}
\newlabel{sc:lps_orientado_a_servicos:soa}{{2.2.1}{16}{Arquiteturas Orientadas a Serviços\relax }{subsection.2.2.1}{}}
\undonewlabel{acro:COS}
\newlabel{acro:COS}{{2.2.1}{16}{Arquiteturas Orientadas a Serviços\relax }{section*.15}{}}
\acronymused{COS}
\@writefile{brf}{\backcite{Papazoglou2003}{{16}{2.2.1}{subsection.2.2.1}}}
\@writefile{brf}{\backcite{Raatikainen2007}{{16}{2.2.1}{subsection.2.2.1}}}
\acronymused{AOS}
\@writefile{brf}{\backcite{Papazoglou2003}{{16}{2.2.1}{subsection.2.2.1}}}
\@writefile{toc}{\contentsline {subsubsection}{Motiva\IeC {\c c}\IeC {\~a}o}{16}{subsubsection*.16}}
\newlabel{sc:lps_orientado_a_servicos:soa:motivacao}{{2.2.1}{16}{Motivação\relax }{subsubsection*.16}{}}
\@writefile{brf}{\backcite{Erl2007}{{16}{2.2.1}{subsubsection*.16}}}
\acronymused{AOS}
\acronymused{AOS}
\acronymused{AOS}
\@writefile{brf}{\backcite{Elfatatry2004}{{16}{2.2.1}{subsubsection*.16}}}
\citation{Erl2005}
\citation{Ziyun2011}
\citation{Erl2005}
\citation{McGovern2003}
\citation{Erl2005}
\citation{Dirksen2013}
\citation{Erl2005}
\@writefile{brf}{\backcite{Carter2007}{{17}{2.2.1}{subsubsection*.16}}}
\acronymused{AOS}
\@writefile{brf}{\backcite{Endrei2004}{{17}{2.2.1}{subsubsection*.16}}}
\@writefile{brf}{\backcite{Erl2005}{{17}{2.2.1}{subsubsection*.16}}}
\@writefile{brf}{\backcite{Ziyun2011}{{17}{2.2.1}{subsubsection*.16}}}
\@writefile{brf}{\backcite{Erl2005}{{17}{2.2.1}{subsubsection*.16}}}
\@writefile{toc}{\contentsline {subsubsection}{Princ\IeC {\'\i }pios e Pap\IeC {\'e}is}{17}{subsubsection*.17}}
\newlabel{sc:lps_orientado_a_servicos:soa:principios}{{2.2.1}{17}{Princípios e Papéis\relax }{subsubsection*.17}{}}
\@writefile{brf}{\backcite{McGovern2003}{{17}{2.2.1}{subsubsection*.17}}}
\@writefile{brf}{\backcite{Erl2005}{{17}{2.2.1}{subsubsection*.17}}}
\@writefile{brf}{\backcite{Dirksen2013}{{17}{2.2.1}{subsubsection*.17}}}
\citation{Erl2005}
\citation{WSDISCOVERY2005}
\citation{Erl2007}
\citation{Papazoglou2003}
\citation{Papazoglou2003}
\citation{Papazoglou2003}
\citation{Josuttis2007}
\@writefile{brf}{\backcite{Erl2005}{{18}{2.2.1}{subsubsection*.17}}}
\@writefile{brf}{\backcite{Erl2005}{{18}{2.2.1}{subsubsection*.17}}}
\@writefile{brf}{\backcite{WSDISCOVERY2005}{{18}{2.2.1}{subsubsection*.17}}}
\@writefile{brf}{\backcite{Erl2007}{{18}{2.2.1}{subsubsection*.17}}}
\@writefile{brf}{\backcite{Papazoglou2003}{{18}{2.2.1}{subsubsection*.17}}}
\@writefile{lof}{\contentsline {figure}{\numberline {2.3}{\ignorespaces Arquitetura Orientada a Servi\IeC {\c c}os: Pap\IeC {\'e}is e Opera\IeC {\c c}\IeC {\~o}es}}{18}{figure.2.3}}
\@writefile{brf}{\backcite{Papazoglou2003}{{18}{2.3}{figure.2.3}}}
\newlabel{fg:lps_orientado_a_servicos:soa:principios:papeis_e_operacoes}{{2.3}{18}{Arquitetura Orientada a Serviços: Papéis e Operações\relax }{figure.2.3}{}}
\citation{Josuttis2007}
\citation{McGovern2003}
\citation{Gonzalez2010}
\citation{Erl2005}
\citation{McGovern2003}
\citation{Yu2010}
\citation{Ye2007}
\citation{Galster2010}
\citation{Raatikainen2007}
\citation{Segura2007}
\citation{Smith2009}
\citation{Trujillo2007}
\citation{Istoan2009}
\citation{Medeiros2010}
\citation{Ribeiro2010}
\@writefile{brf}{\backcite{Josuttis2007}{{19}{2.2.1}{figure.2.3}}}
\@writefile{brf}{\backcite{Josuttis2007}{{19}{2.2.1}{figure.2.3}}}
\@writefile{brf}{\backcite{McGovern2003}{{19}{2.2.1}{figure.2.3}}}
\@writefile{brf}{\backcite{Gonzalez2010}{{19}{2.2.1}{figure.2.3}}}
\@writefile{brf}{\backcite{Erl2005}{{19}{2.2.1}{figure.2.3}}}
\@writefile{brf}{\backcite{McGovern2003}{{19}{2.2.1}{figure.2.3}}}
\@writefile{toc}{\contentsline {subsection}{\numberline {2.2.2}Linhas de Produto Orientadas a Servi\IeC {\c c}os}{19}{subsection.2.2.2}}
\newlabel{sc:lps_orientado_a_servicos:sopl}{{2.2.2}{19}{Linhas de Produto Orientadas a Serviços\relax }{subsection.2.2.2}{}}
\acronymused{AOS}
\acronymused{LPS}
\acronymused{LPS}
\acronymused{AOS}
\acronymused{LPS}
\@writefile{brf}{\backcite{Yu2010}{{19}{2.2.2}{subsection.2.2.2}}}
\@writefile{brf}{\backcite{Ye2007}{{19}{2.2.2}{subsection.2.2.2}}}
\@writefile{brf}{\backcite{Galster2010}{{19}{2.2.2}{subsection.2.2.2}}}
\@writefile{brf}{\backcite{Raatikainen2007}{{19}{2.2.2}{subsection.2.2.2}}}
\@writefile{brf}{\backcite{Segura2007}{{19}{2.2.2}{subsection.2.2.2}}}
\@writefile{brf}{\backcite{Smith2009}{{19}{2.2.2}{subsection.2.2.2}}}
\@writefile{brf}{\backcite{Trujillo2007}{{19}{2.2.2}{subsection.2.2.2}}}
\acronymused{AOS}
\acronymused{LPS}
\@writefile{brf}{\backcite{Istoan2009}{{19}{2.2.2}{subsection.2.2.2}}}
\@writefile{brf}{\backcite{Medeiros2010}{{19}{2.2.2}{subsection.2.2.2}}}
\@writefile{brf}{\backcite{Ribeiro2010}{{19}{2.2.2}{subsection.2.2.2}}}
\@writefile{lof}{\contentsline {figure}{\numberline {2.4}{\ignorespaces Linha de Produto Orientadas a Servi\IeC {\c c}os: Configura\IeC {\c c}\IeC {\~a}o de Produtos}}{20}{figure.2.4}}
\newlabel{fg:lps_orientado_a_servicos:sopl:sopl}{{2.4}{20}{Linha de Produto Orientadas a Serviços: Configuração de Produtos\relax }{figure.2.4}{}}
\citation{Parra2009}
\citation{Yu2010}
\@writefile{lof}{\contentsline {figure}{\numberline {2.5}{\ignorespaces Composi\IeC {\c c}\IeC {\~a}o de \textit  {features}}}{21}{figure.2.5}}
\newlabel{fg:lps_orientado_a_servicos:sopl:sopl_dymos}{{2.5}{21}{Composição de \textit {features}\relax }{figure.2.5}{}}
\@writefile{toc}{\contentsline {section}{\numberline {2.3}Trabalhos Relacionados}{21}{section.2.3}}
\newlabel{sc:trabalhos_relacionados}{{2.3}{21}{Trabalhos Relacionados\relax }{section.2.3}{}}
\@writefile{brf}{\backcite{Parra2009}{{21}{2.3}{section.2.3}}}
\citation{Alferez2011}
\citation{Erl2007}
\citation{Parra2009}
\citation{Alferez2011}
\citation{Jackson2013}
\citation{Yu2010}
\@writefile{brf}{\backcite{Yu2010}{{22}{2.3}{section.2.3}}}
\acronymused{LPS}
\acronymused{COS}
\@writefile{brf}{\backcite{Alferez2011}{{22}{2.3}{section.2.3}}}
\acronymused{LPSOSSC}
\acronymused{AOS}
\@writefile{brf}{\backcite{Erl2007}{{22}{2.3}{section.2.3}}}
\@writefile{brf}{\backcite{Parra2009}{{22}{2.3}{section.2.3}}}
\acronymused{LPS}
\@writefile{brf}{\backcite{Alferez2011}{{22}{2.3}{section.2.3}}}
\@writefile{brf}{\backcite{Jackson2013}{{22}{2.3}{section.2.3}}}
\@writefile{brf}{\backcite{Yu2010}{{22}{2.3}{section.2.3}}}
\acronymused{LPSD}
\@setckpt{chapters/2_literature_review/literature_review_main}{
\setcounter{page}{23}
\setcounter{equation}{0}
\setcounter{enumi}{3}
\setcounter{enumii}{0}
\setcounter{enumiii}{0}
\setcounter{enumiv}{0}
\setcounter{footnote}{2}
\setcounter{mpfootnote}{0}
\setcounter{part}{0}
\setcounter{chapter}{2}
\setcounter{section}{3}
\setcounter{subsection}{0}
\setcounter{subsubsection}{0}
\setcounter{paragraph}{0}
\setcounter{subparagraph}{0}
\setcounter{figure}{5}
\setcounter{table}{0}
\setcounter{parentequation}{0}
\setcounter{@pps}{0}
\setcounter{@ppsavesec}{0}
\setcounter{@ppsaveapp}{0}
\setcounter{Def}{0}
\setcounter{Axi}{0}
\setcounter{Conj}{0}
\setcounter{Lem}{0}
\setcounter{Theo}{0}
\setcounter{Prop}{0}
\setcounter{Cor}{0}
\setcounter{NAT@ctr}{0}
\setcounter{AlgoLine}{0}
\setcounter{algocfline}{0}
\setcounter{algocfproc}{0}
\setcounter{algocf}{0}
\setcounter{lstnumber}{1}
\setcounter{float@type}{8}
\setcounter{Item}{3}
\setcounter{Hfootnote}{9}
\setcounter{bookmark@seq@number}{18}
\setcounter{lstlisting}{0}
\setcounter{section@level}{0}
}
