\relax 
\@writefile{loa}{\addvspace {10\p@ }}
\@writefile{toc}{\contentsline {chapter}{\numberline {5}Conclus\IeC {\~a}o}{72}{chapter.5}}
\@writefile{lof}{\addvspace {10\p@ }}
\@writefile{lot}{\addvspace {10\p@ }}
\newlabel{ch:conclusao}{{5}{72}{Conclusão\relax }{chapter.5}{}}
\@writefile{toc}{\contentsline {section}{\numberline {5.1}Contribui\IeC {\c c}\IeC {\~o}es}{72}{section.5.1}}
\newlabel{sc:contribuicoes}{{5.1}{72}{Contribuições\relax }{section.5.1}{}}
\@writefile{toc}{\contentsline {section}{\numberline {5.2}Trabalhos Futuros}{73}{section.5.2}}
\newlabel{sc:trabalhos_futuros}{{5.2}{73}{Trabalhos Futuros\relax }{section.5.2}{}}
\@setckpt{chapters/5_conclusion/conclusion_main}{
\setcounter{page}{74}
\setcounter{equation}{0}
\setcounter{enumi}{4}
\setcounter{enumii}{0}
\setcounter{enumiii}{0}
\setcounter{enumiv}{0}
\setcounter{footnote}{0}
\setcounter{mpfootnote}{0}
\setcounter{part}{0}
\setcounter{chapter}{5}
\setcounter{section}{2}
\setcounter{subsection}{0}
\setcounter{subsubsection}{0}
\setcounter{paragraph}{0}
\setcounter{subparagraph}{0}
\setcounter{figure}{0}
\setcounter{table}{0}
\setcounter{parentequation}{0}
\setcounter{@pps}{0}
\setcounter{@ppsavesec}{0}
\setcounter{@ppsaveapp}{0}
\setcounter{Def}{0}
\setcounter{Axi}{0}
\setcounter{Conj}{0}
\setcounter{Lem}{0}
\setcounter{Theo}{0}
\setcounter{Prop}{0}
\setcounter{Cor}{0}
\setcounter{NAT@ctr}{0}
\setcounter{AlgoLine}{0}
\setcounter{algocfline}{0}
\setcounter{algocfproc}{0}
\setcounter{algocf}{0}
\setcounter{lstnumber}{12}
\setcounter{float@type}{8}
\setcounter{Item}{13}
\setcounter{Hfootnote}{19}
\setcounter{bookmark@seq@number}{52}
\setcounter{lstlisting}{0}
\setcounter{section@level}{0}
}
