# Fdb version 3
["pdflatex"] 1374602628 "the_solution_main.tex" "the_solution_main.pdf" "the_solution_main" 
  "the_solution_main.aux" 1374602525 9569 31311b2ec45840f586940a9d19d1a3d1 ""
  "the_solution_main.tex" 1374602372 30745 f0396c9ef4879cd1f1a77fac49a206c3 ""
  (generated)
  "the_solution_main.log"
  "the_solution_main.pdf"
