\relax 
\citation{Gomaa2011}
\@writefile{loa}{\addvspace {10\p@ }}
\@writefile{toc}{\contentsline {chapter}{\numberline {3}DYMOS Framework}{23}{chapter.3}}
\@writefile{lof}{\addvspace {10\p@ }}
\@writefile{lot}{\addvspace {10\p@ }}
\newlabel{ch:the_solution}{{3}{23}{DYMOS Framework\relax }{chapter.3}{}}
\@writefile{toc}{\contentsline {section}{\numberline {3.1}Vis\IeC {\~a}o Geral da Solu\IeC {\c c}\IeC {\~a}o}{23}{section.3.1}}
\newlabel{sec:visao_geral_solucao}{{3.1}{23}{Visão Geral da Solução\relax }{section.3.1}{}}
\@writefile{brf}{\backcite{Gomaa2011}{{23}{3.1}{section.3.1}}}
\citation{Escoffier2007}
\citation{Erl2007}
\citation{Hallsteinsen2006}
\citation{Kim2005}
\citation{Oreizy1999}
\acronymused{LPSOSSC}
\@writefile{brf}{\backcite{Escoffier2007}{{24}{3.1}{section.3.1}}}
\@writefile{brf}{\backcite{Erl2007}{{24}{3.1}{section.3.1}}}
\acronymused{AOS}
\newlabel{sc:problematica_p1}{{i}{24}{Visão Geral da Solução\relax }{Item.4}{}}
\newlabel{sc:problematica_p2}{{ii}{24}{Visão Geral da Solução\relax }{Item.5}{}}
\acronymused{SSC}
\@writefile{brf}{\backcite{Hallsteinsen2006}{{24}{3.1}{Item.5}}}
\@writefile{brf}{\backcite{Kim2005}{{24}{3.1}{Item.5}}}
\@writefile{brf}{\backcite{Oreizy1999}{{24}{3.1}{Item.5}}}
\newlabel{sc:problematica_p3}{{iii}{24}{Visão Geral da Solução\relax }{Item.6}{}}
\citation{Tiwari2012}
\citation{Ullah2011}
\@writefile{toc}{\contentsline {section}{\numberline {3.2}Elicita\IeC {\c c}\IeC {\~a}o de Requisitos}{26}{section.3.2}}
\newlabel{sec:elicitacao_requisitos}{{3.2}{26}{Elicitação de Requisitos\relax }{section.3.2}{}}
\@writefile{brf}{\backcite{Tiwari2012}{{26}{3.2}{section.3.2}}}
\undonewlabel{acro:RF}
\newlabel{acro:RF}{{3.2}{26}{Elicitação de Requisitos\relax }{section*.18}{}}
\acronymused{RF}
\undonewlabel{acro:RNF}
\newlabel{acro:RNF}{{3.2}{26}{Elicitação de Requisitos\relax }{section*.19}{}}
\acronymused{RNF}
\acronymused{RF}
\acronymused{RNF}
\acronymused{RF}
\@writefile{brf}{\backcite{Ullah2011}{{26}{3.2}{section.3.2}}}
\acronymused{RF}
\acronymused{RNF}
\citation{deCastroAlves2011}
\citation{Hall2011}
\@writefile{toc}{\contentsline {section}{\numberline {3.3}Tecnologias Utilizadas}{27}{section.3.3}}
\newlabel{sec:tecnologias_utilizadas}{{3.3}{27}{Tecnologias Utilizadas\relax }{section.3.3}{}}
\@writefile{brf}{\backcite{deCastroAlves2011}{{27}{3.3}{section.3.3}}}
\@writefile{brf}{\backcite{Hall2011}{{27}{3.3}{section.3.3}}}
\citation{Escoffier2007}
\citation{Kruchten2006}
\citation{Shaw1996}
\citation{Clements2003}
\@writefile{brf}{\backcite{Escoffier2007}{{28}{3.3}{section.3.3}}}
\@writefile{toc}{\contentsline {section}{\numberline {3.4}Arquitetura e Implementa\IeC {\c c}\IeC {\~a}o}{28}{section.3.4}}
\newlabel{sec:arquitetura_e_implementacao}{{3.4}{28}{Arquitetura e Implementação\relax }{section.3.4}{}}
\@writefile{brf}{\backcite{Kruchten2006}{{28}{3.4}{section.3.4}}}
\@writefile{brf}{\backcite{Shaw1996}{{28}{3.4}{section.3.4}}}
\@writefile{brf}{\backcite{Clements2003}{{28}{3.4}{section.3.4}}}
\@writefile{lof}{\contentsline {figure}{\numberline {3.1}{\ignorespaces DYMOS: Vis\IeC {\~a}o Geral da Arquitetura}}{29}{figure.3.1}}
\newlabel{fg:arquitetura_visao_geral}{{3.1}{29}{DYMOS: Visão Geral da Arquitetura\relax }{figure.3.1}{}}
\@writefile{toc}{\contentsline {subsection}{\numberline {3.4.1}Componentes Descritores}{29}{subsection.3.4.1}}
\newlabel{sec:componentes_descritores}{{3.4.1}{29}{Componentes Descritores\relax }{subsection.3.4.1}{}}
\@writefile{lof}{\contentsline {figure}{\numberline {3.2}{\ignorespaces Especifica\IeC {\c c}\IeC {\~a}o de Descritores}}{30}{figure.3.2}}
\newlabel{fg:especificacao_de_descritores}{{3.2}{30}{Especificação de Descritores\relax }{figure.3.2}{}}
\undonewlabel{acro:DS}
\newlabel{acro:DS}{{3.4.1}{30}{Componentes Descritores\relax }{section*.20}{}}
\acronymused{DS}
\undonewlabel{acro:DV}
\newlabel{acro:DV}{{3.4.1}{30}{Componentes Descritores\relax }{section*.21}{}}
\acronymused{DV}
\undonewlabel{acro:WSR}
\newlabel{acro:WSR}{{3.4.1}{30}{Componentes Descritores\relax }{section*.22}{}}
\acronymused{WSR}
\@writefile{lof}{\contentsline {figure}{\numberline {3.3}{\ignorespaces Relacionamento entre Descritores}}{31}{figure.3.3}}
\newlabel{fg:all_descriptors}{{3.3}{31}{Relacionamento entre Descritores\relax }{figure.3.3}{}}
\@writefile{toc}{\contentsline {subsubsection}{Descritor de Servi\IeC {\c c}os}{31}{subsubsection*.23}}
\newlabel{sec:descritor_servicos}{{3.4.1}{31}{Descritor de Serviços\relax }{subsubsection*.23}{}}
\acronymused{XML}
\@writefile{lof}{\contentsline {figure}{\numberline {3.4}{\ignorespaces Descritor de Servi\IeC {\c c}os: Estrutura de Metadados}}{32}{figure.3.4}}
\newlabel{fg:meta_dados_descritor_servicos}{{3.4}{32}{Descritor de Serviços: Estrutura de Metadados\relax }{figure.3.4}{}}
\@writefile{lol}{\contentsline {lstlisting}{chapters/3\textunderscore the\textunderscore solution/files/services.xml}{33}{lstlisting.3.-1}}
\@writefile{lof}{\contentsline {figure}{\numberline {3.5}{\ignorespaces Descritor de Servi\IeC {\c c}os: Exemplo Pr\IeC {\'a}tico}}{33}{figure.3.5}}
\newlabel{fg:exemplo_descritor_servicos}{{3.5}{33}{Descritor de Serviços: Exemplo Prático\relax }{figure.3.5}{}}
\acronymused{DS}
\@writefile{toc}{\contentsline {subsubsection}{Descritor de Variabilidades}{33}{subsubsection*.24}}
\newlabel{sec:descritor_variabilidades}{{3.4.1}{33}{Descritor de Variabilidades\relax }{subsubsection*.24}{}}
\acronymused{DS}
\acronymused{DV}
\citation{Pohl2005}
\@writefile{lof}{\contentsline {figure}{\numberline {3.6}{\ignorespaces Descritor de Variabilidades: Estrutura de Metadados}}{34}{figure.3.6}}
\newlabel{fg:meta_dados_descritor_variabilidades}{{3.6}{34}{Descritor de Variabilidades: Estrutura de Metadados\relax }{figure.3.6}{}}
\@writefile{brf}{\backcite{Pohl2005}{{34}{3.4.1}{figure.3.6}}}
\@writefile{lol}{\contentsline {lstlisting}{chapters/3\textunderscore the\textunderscore solution/files/variabilities.xml}{35}{lstlisting.3.-2}}
\@writefile{lof}{\contentsline {figure}{\numberline {3.7}{\ignorespaces Descritor de Variabilidades: Exemplo Pr\IeC {\'a}tico}}{35}{figure.3.7}}
\newlabel{fg:exemplo_descritor_variabilidades}{{3.7}{35}{Descritor de Variabilidades: Exemplo Prático\relax }{figure.3.7}{}}
\@writefile{toc}{\contentsline {subsubsection}{Web Service Resolver}{35}{subsubsection*.25}}
\newlabel{sec:descritor_wsdl}{{3.4.1}{35}{Web Service Resolver\relax }{subsubsection*.25}{}}
\acronymused{WSDL}
\acronymused{WSR}
\acronymused{WSR}
\acronymused{DS}
\acronymused{WSR}
\@writefile{lof}{\contentsline {figure}{\numberline {3.8}{\ignorespaces Descritor de WSDL: Fluxo de Dados}}{36}{figure.3.8}}
\newlabel{fg:descritor_wsdl_fluxo_dados}{{3.8}{36}{Descritor de WSDL: Fluxo de Dados\relax }{figure.3.8}{}}
\undonewlabel{acro:WSDL}
\newlabel{acro:WSDL}{{3.4.1}{36}{Web Service Resolver\relax }{section*.26}{}}
\acronymused{WSDL}
\@writefile{toc}{\contentsline {subsection}{\numberline {3.4.2}Componente ServiceContext}{36}{subsection.3.4.2}}
\newlabel{sec:componente_serviceContext}{{3.4.2}{36}{Componente ServiceContext\relax }{subsection.3.4.2}{}}
\citation{Hallsteinsen2006}
\citation{Hallsteinsen2008}
\@writefile{lof}{\contentsline {figure}{\numberline {3.9}{\ignorespaces Componente ServiceContext: Uma vis\IeC {\~a}o sob uma perspectiva de depend\IeC {\^e}ncia entre componentes}}{37}{figure.3.9}}
\newlabel{fg:service_context_dependency}{{3.9}{37}{Componente ServiceContext: Uma visão sob uma perspectiva de dependência entre componentes\relax }{figure.3.9}{}}
\@writefile{toc}{\contentsline {subsubsection}{Reconfigurando Variabilidades Din\IeC {\^a}micas}{37}{subsubsection*.27}}
\newlabel{sec:reconfigurando_variabilidades_dinamicas}{{3.4.2}{37}{Reconfigurando Variabilidades Dinâmicas\relax }{subsubsection*.27}{}}
\acronymused{LPS}
\@writefile{brf}{\backcite{Hallsteinsen2006}{{37}{3.4.2}{subsubsection*.27}}}
\acronymused{LPS}
\acronymused{LPS}
\@writefile{brf}{\backcite{Hallsteinsen2008}{{38}{3.4.2}{subsubsection*.27}}}
\@writefile{lof}{\contentsline {figure}{\numberline {3.10}{\ignorespaces Reconfigurando Variabilidades Din\IeC {\^a}micas: Diagrama de Sequ\IeC {\^e}ncia}}{38}{figure.3.10}}
\newlabel{fg:dseq_dynamic_reconfiguration}{{3.10}{38}{Reconfigurando Variabilidades Dinâmicas: Diagrama de Sequência\relax }{figure.3.10}{}}
\citation{Yu2008}
\citation{Khezrian2010}
\acronymused{DV}
\acronymused{DS}
\acronymused{DS}
\@writefile{toc}{\contentsline {subsubsection}{Descoberta de Servi\IeC {\c c}os}{39}{subsubsection*.28}}
\newlabel{sec:descoberta_de_servicos}{{3.4.2}{39}{Descoberta de Serviços\relax }{subsubsection*.28}{}}
\@writefile{brf}{\backcite{Yu2008}{{39}{3.4.2}{subsubsection*.28}}}
\@writefile{brf}{\backcite{Khezrian2010}{{39}{3.4.2}{subsubsection*.28}}}
\@writefile{lof}{\contentsline {figure}{\numberline {3.11}{\ignorespaces Descoberta de Servi\IeC {\c c}os: Vis\IeC {\~a}o geral sobre a intera\IeC {\c c}\IeC {\~a}o entre componentes}}{40}{figure.3.11}}
\newlabel{fg:service_discovery}{{3.11}{40}{Descoberta de Serviços: Visão geral sobre a interação entre componentes\relax }{figure.3.11}{}}
\acronymused{DS}
\@writefile{lol}{\contentsline {lstlisting}{chapters/3\textunderscore the\textunderscore solution/files/services\textunderscore pratical\textunderscore example.xml}{41}{lstlisting.3.-3}}
\@writefile{lof}{\contentsline {figure}{\numberline {3.12}{\ignorespaces Descoberta de Servi\IeC {\c c}os: Servi\IeC {\c c}os descritos para um exemplo pr\IeC {\'a}tico}}{41}{figure.3.12}}
\newlabel{fg:exemplo_descritor_e_descoberta_servicos}{{3.12}{41}{Descoberta de Serviços: Serviços descritos para um exemplo prático\relax }{figure.3.12}{}}
\@writefile{lof}{\contentsline {figure}{\numberline {3.13}{\ignorespaces Descoberta de Servi\IeC {\c c}os: Diagrama de Sequ\IeC {\^e}ncia}}{42}{figure.3.13}}
\newlabel{fg:dseq_service_discovery}{{3.13}{42}{Descoberta de Serviços: Diagrama de Sequência\relax }{figure.3.13}{}}
\acronymused{DS}
\citation{Alhazbi2006}
\citation{Tan2001}
\citation{Oreizy1998}
\newlabel{it:sd_spec_impl}{{i}{43}{Descoberta de Serviços\relax }{Item.7}{}}
\acronymused{DS}
\newlabel{it:sd_alt_service}{{ii}{43}{Descoberta de Serviços\relax }{Item.8}{}}
\newlabel{it:sd_only_spec}{{iii}{43}{Descoberta de Serviços\relax }{Item.9}{}}
\acronymused{DS}
\@writefile{toc}{\contentsline {subsubsection}{Reconstruindo o ServiceContext com o ContextHotBuild}{43}{subsubsection*.29}}
\newlabel{sec:hot_build_context}{{3.4.2}{43}{Reconstruindo o ServiceContext com o ContextHotBuild\relax }{subsubsection*.29}{}}
\@writefile{brf}{\backcite{Alhazbi2006}{{43}{3.4.2}{subsubsection*.29}}}
\@writefile{brf}{\backcite{Tan2001}{{43}{3.4.2}{subsubsection*.29}}}
\@writefile{brf}{\backcite{Oreizy1998}{{43}{3.4.2}{subsubsection*.29}}}
\citation{Gamma1995}
\citation{Gamma1995}
\acronymused{DS}
\acronymused{DV}
\@writefile{toc}{\contentsline {subsection}{\numberline {3.4.3}Componente ApplicationService}{44}{subsection.3.4.3}}
\newlabel{sec:componente_applicationService}{{3.4.3}{44}{Componente ApplicationService\relax }{subsection.3.4.3}{}}
\@writefile{brf}{\backcite{Gamma1995}{{44}{3.4.3}{subsection.3.4.3}}}
\@writefile{brf}{\backcite{Gamma1995}{{44}{3.4.3}{subsection.3.4.3}}}
\@writefile{toc}{\contentsline {subsection}{\numberline {3.4.4}Decis\IeC {\~o}es Arquiteturais e Conclus\IeC {\~a}o}{45}{subsection.3.4.4}}
\newlabel{sec:decisoes_arquiteturais_e_conclusao}{{3.4.4}{45}{Decisões Arquiteturais e Conclusão\relax }{subsection.3.4.4}{}}
\acronymused{RF}
\acronymused{RNF}
\acronymused{LPSOSSC}
\acronymused{LPS}
\acronymused{JAXB}
\acronymused{JAXB}
\citation{Yu2008}
\@writefile{brf}{\backcite{Yu2008}{{47}{3.4.4}{subsection.3.4.4}}}
\acronymused{DS}
\@writefile{lot}{\contentsline {table}{\numberline {3.1}{\ignorespaces Rela\IeC {\c c}\IeC {\~a}o entre Componentes, Requisitos Funcionais e Requisitos N\IeC {\~a}o-Funcionais }}{47}{table.3.1}}
\newlabel{tb:relacao_componentes_requisitos}{{3.1}{47}{Relação entre Componentes, Requisitos Funcionais e Requisitos Não-Funcionais\relax }{table.3.1}{}}
\@setckpt{chapters/3_the_solution/the_solution_main}{
\setcounter{page}{48}
\setcounter{equation}{0}
\setcounter{enumi}{3}
\setcounter{enumii}{0}
\setcounter{enumiii}{0}
\setcounter{enumiv}{0}
\setcounter{footnote}{3}
\setcounter{mpfootnote}{0}
\setcounter{part}{0}
\setcounter{chapter}{3}
\setcounter{section}{4}
\setcounter{subsection}{4}
\setcounter{subsubsection}{0}
\setcounter{paragraph}{0}
\setcounter{subparagraph}{0}
\setcounter{figure}{13}
\setcounter{table}{1}
\setcounter{parentequation}{0}
\setcounter{@pps}{0}
\setcounter{@ppsavesec}{0}
\setcounter{@ppsaveapp}{0}
\setcounter{Def}{0}
\setcounter{Axi}{0}
\setcounter{Conj}{0}
\setcounter{Lem}{0}
\setcounter{Theo}{0}
\setcounter{Prop}{0}
\setcounter{Cor}{0}
\setcounter{NAT@ctr}{0}
\setcounter{AlgoLine}{0}
\setcounter{algocfline}{0}
\setcounter{algocfproc}{0}
\setcounter{algocf}{0}
\setcounter{lstnumber}{23}
\setcounter{float@type}{8}
\setcounter{Item}{9}
\setcounter{Hfootnote}{12}
\setcounter{bookmark@seq@number}{33}
\setcounter{lstlisting}{0}
\setcounter{section@level}{0}
}
