\relax 
\citation{Marinho2012}
\citation{Pohl2005}
\@writefile{loa}{\addvspace {10\p@ }}
\@writefile{toc}{\contentsline {chapter}{\numberline {4}Uma Avalia\IeC {\c c}\IeC {\~a}o Preliminar}{48}{chapter.4}}
\@writefile{lof}{\addvspace {10\p@ }}
\@writefile{lot}{\addvspace {10\p@ }}
\newlabel{ch:avaliacao_preliminar}{{4}{48}{Uma Avaliação Preliminar\relax }{chapter.4}{}}
\acronymused{LPSOSSC}
\acronymused{LPS}
\@writefile{brf}{\backcite{Marinho2012}{{48}{4}{chapter.4}}}
\@writefile{toc}{\contentsline {section}{\numberline {4.1}MobiLine}{48}{section.4.1}}
\newlabel{sec:avaliacao_preliminar:mobiline}{{4.1}{48}{MobiLine\relax }{section.4.1}{}}
\acronymused{LPS}
\acronymused{LPS}
\@writefile{brf}{\backcite{Pohl2005}{{48}{4.1}{section.4.1}}}
\citation{Marinho2012}
\citation{Marinho2012}
\acronymused{LPS}
\@writefile{lof}{\contentsline {figure}{\numberline {4.1}{\ignorespaces Abordagem utilizada na MobiLine}}{49}{figure.4.1}}
\@writefile{brf}{\backcite{Marinho2012}{{49}{4.1}{figure.4.1}}}
\newlabel{fg:avaliacao_preliminar:mobiline}{{4.1}{49}{Abordagem utilizada na MobiLine\relax }{figure.4.1}{}}
\@writefile{brf}{\backcite{Marinho2012}{{49}{4.1}{figure.4.1}}}
\@writefile{toc}{\contentsline {section}{\numberline {4.2}GREat Tour}{50}{section.4.2}}
\newlabel{sec:avaliacao_preliminar:great_tour}{{4.2}{50}{GREat Tour\relax }{section.4.2}{}}
\@writefile{toc}{\contentsline {subsection}{\numberline {4.2.1}An\IeC {\'a}lise e Defini\IeC {\c c}\IeC {\~o}es}{50}{subsection.4.2.1}}
\newlabel{sec:avaliacao_preliminar:analise_e_definicoes}{{4.2.1}{50}{Análise e Definições\relax }{subsection.4.2.1}{}}
\newlabel{sec:avaliacao_preliminar:analise_e_definicoes:analise1}{{1}{50}{Análise e Definições\relax }{Item.10}{}}
\newlabel{sec:avaliacao_preliminar:analise_e_definicoes:analise2}{{2}{50}{Análise e Definições\relax }{Item.11}{}}
\newlabel{sec:avaliacao_preliminar:analise_e_definicoes:analise3}{{3}{50}{Análise e Definições\relax }{Item.12}{}}
\citation{Czarnecki2000}
\newlabel{sec:avaliacao_preliminar:analise_e_definicoes:analise4}{{4}{51}{Análise e Definições\relax }{Item.13}{}}
\@writefile{toc}{\contentsline {subsection}{\numberline {4.2.2}Analisando o Modelo de \textit  {Features}}{51}{subsection.4.2.2}}
\newlabel{sec:avaliacao_preliminar:analise_e_definicoes:analisando_featmodel}{{4.2.2}{51}{Analisando o Modelo de \textit {Features}\relax }{subsection.4.2.2}{}}
\@writefile{brf}{\backcite{Czarnecki2000}{{51}{4.2.2}{subsection.4.2.2}}}
\@writefile{lof}{\contentsline {figure}{\numberline {4.2}{\ignorespaces GREat Tour: Modelo de \textit  {Feature} Parcial}}{51}{figure.4.2}}
\newlabel{fg:great_tour:feature_model}{{4.2}{51}{GREat Tour: Modelo de \textit {Feature} Parcial\relax }{figure.4.2}{}}
\@writefile{toc}{\contentsline {subsection}{\numberline {4.2.3}Analisando os Artefatos}{52}{subsection.4.2.3}}
\newlabel{sec:avaliacao_preliminar:analise_e_definicoes:analisando_artefatos}{{4.2.3}{52}{Analisando os Artefatos\relax }{subsection.4.2.3}{}}
\@writefile{lot}{\contentsline {table}{\numberline {4.1}{\ignorespaces Rela\IeC {\c c}\IeC {\~a}o entre \textit  {Features} e Artefatos}}{52}{table.4.1}}
\newlabel{tb:relacao_features_artefatos}{{4.1}{52}{Relação entre \textit {Features} e Artefatos\relax }{table.4.1}{}}
\citation{Hall2011}
\citation{deCastroAlves2011}
\@writefile{toc}{\contentsline {subsection}{\numberline {4.2.4}Modularizando Servi\IeC {\c c}os}{53}{subsection.4.2.4}}
\newlabel{sec:avaliacao_preliminar:analise_e_definicoes:modularizando_servicos}{{4.2.4}{53}{Modularizando Serviços\relax }{subsection.4.2.4}{}}
\@writefile{brf}{\backcite{Hall2011}{{53}{4.2.4}{subsection.4.2.4}}}
\@writefile{brf}{\backcite{deCastroAlves2011}{{53}{4.2.4}{subsection.4.2.4}}}
\@writefile{lof}{\contentsline {figure}{\numberline {4.3}{\ignorespaces MySQLServiceProvider: Depend\IeC {\^e}ncia entre o Servi\IeC {\c c}o Provedor de Conex\IeC {\~o}es e os demais Servi\IeC {\c c}os Modularizados}}{54}{figure.4.3}}
\newlabel{fg:avaliacao_preliminar:mySQLDataSourceFactoryAndOthers}{{4.3}{54}{MySQLServiceProvider: Dependência entre o Serviço Provedor de Conexões e os demais Serviços Modularizados\relax }{figure.4.3}{}}
\@writefile{toc}{\contentsline {subsubsection}{MySQLServiceProvider}{54}{subsubsection*.30}}
\@writefile{lof}{\contentsline {figure}{\numberline {4.4}{\ignorespaces MySQLDataSourceFactory: F\IeC {\'a}brica de conex\IeC {\~o}es MySQL utilizando JDBC}}{55}{figure.4.4}}
\newlabel{fg:avaliacao_preliminar:mySQLDataSourceFactory}{{4.4}{55}{MySQLDataSourceFactory: Fábrica de conexões MySQL utilizando JDBC\relax }{figure.4.4}{}}
\@writefile{lof}{\contentsline {figure}{\numberline {4.5}{\ignorespaces MySQLDataSourceFactory: Configura\IeC {\c c}\IeC {\~a}o iPOJO do Componente e sua Inst\IeC {\^a}ncia}}{56}{figure.4.5}}
\newlabel{fg:avaliacao_preliminar:MySQLDataSourceFactoryMetadata}{{4.5}{56}{MySQLDataSourceFactory: Configuração iPOJO do Componente e sua Instância\relax }{figure.4.5}{}}
\@writefile{toc}{\contentsline {subsubsection}{LoginService}{56}{subsubsection*.31}}
\@writefile{lof}{\contentsline {figure}{\numberline {4.6}{\ignorespaces LoginService: Especifica\IeC {\c c}\IeC {\~a}o}}{57}{figure.4.6}}
\newlabel{fg:avaliacao_preliminar:LoginService}{{4.6}{57}{LoginService: Especificação\relax }{figure.4.6}{}}
\@writefile{lof}{\contentsline {figure}{\numberline {4.7}{\ignorespaces LoginService: Configura\IeC {\c c}\IeC {\~a}o parcial do arquivo POM}}{57}{figure.4.7}}
\newlabel{fg:avaliacao_preliminar:LoginService_POM}{{4.7}{57}{LoginService: Configuração parcial do arquivo POM\relax }{figure.4.7}{}}
\@writefile{toc}{\contentsline {subsubsection}{LoginServiceProvider}{58}{subsubsection*.32}}
\@writefile{lof}{\contentsline {figure}{\numberline {4.8}{\ignorespaces LoginServiceProvider: Uma implementa\IeC {\c c}\IeC {\~a}o para o \emph  {LoginService}}}{58}{figure.4.8}}
\newlabel{fg:avaliacao_preliminar:LoginServiceProvider}{{4.8}{58}{LoginServiceProvider: Uma implementação para o \emph {LoginService}\relax }{figure.4.8}{}}
\@writefile{lof}{\contentsline {figure}{\numberline {4.9}{\ignorespaces LoginServiceProvider: M\IeC {\'e}todos para estabelecer e finalizar uma conex\IeC {\~a}o com o banco de dados}}{60}{figure.4.9}}
\newlabel{fg:avaliacao_preliminar:LoginServiceProviderContinuacao}{{4.9}{60}{LoginServiceProvider: Métodos para estabelecer e finalizar uma conexão com o banco de dados\relax }{figure.4.9}{}}
\@writefile{lof}{\contentsline {figure}{\numberline {4.10}{\ignorespaces LoginServiceProvider: Configura\IeC {\c c}\IeC {\~a}o de Inst\IeC {\^a}ncia}}{60}{figure.4.10}}
\newlabel{fg:avaliacao_preliminar:LoginServiceProviderMetadata}{{4.10}{60}{LoginServiceProvider: Configuração de Instância\relax }{figure.4.10}{}}
\@writefile{lof}{\contentsline {figure}{\numberline {4.11}{\ignorespaces LoginServiceProvider: Configura\IeC {\c c}\IeC {\~a}o parcial do arquivo POM}}{61}{figure.4.11}}
\newlabel{fg:avaliacao_preliminar:LoginServiceProviderPOM}{{4.11}{61}{LoginServiceProvider: Configuração parcial do arquivo POM\relax }{figure.4.11}{}}
\@writefile{toc}{\contentsline {subsection}{\numberline {4.2.5}Descrevendo Servi\IeC {\c c}os e Variabilidades}{62}{subsection.4.2.5}}
\newlabel{sec:avaliacao_preliminar:greattour:descrevendo_servicos_e_variabilidades}{{4.2.5}{62}{Descrevendo Serviços e Variabilidades\relax }{subsection.4.2.5}{}}
\@writefile{lol}{\contentsline {lstlisting}{chapters/4\textunderscore case\textunderscore study/files/greattour/services.xml}{63}{lstlisting.4.-4}}
\@writefile{lof}{\contentsline {figure}{\numberline {4.12}{\ignorespaces GREat Tour: Descritor de Servi\IeC {\c c}os}}{63}{figure.4.12}}
\newlabel{fg:avaliacao_preliminar:greattour:descritor_de_servicos}{{4.12}{63}{GREat Tour: Descritor de Serviços\relax }{figure.4.12}{}}
\acronymused{DS}
\@writefile{lol}{\contentsline {lstlisting}{chapters/4\textunderscore case\textunderscore study/files/greattour/variabilities.xml}{64}{lstlisting.4.-5}}
\@writefile{lof}{\contentsline {figure}{\numberline {4.13}{\ignorespaces GREat Tour: Descritor de Variabilidades}}{64}{figure.4.13}}
\newlabel{fg:avaliacao_preliminar:greattour:descritor_de_variabilidades}{{4.13}{64}{GREat Tour: Descritor de Variabilidades\relax }{figure.4.13}{}}
\@writefile{toc}{\contentsline {section}{\numberline {4.3}CIn Tour}{65}{section.4.3}}
\newlabel{sec:avaliacao_preliminar:cin_tour}{{4.3}{65}{CIn Tour\relax }{section.4.3}{}}
\acronymused{LPS}
\@writefile{toc}{\contentsline {subsection}{\numberline {4.3.1}Analisando o Modelo de \textit  {Features}}{65}{subsection.4.3.1}}
\newlabel{sec:avaliacao_preliminar:cintour:analise_e_definicoes:analisando_featmodel}{{4.3.1}{65}{Analisando o Modelo de \textit {Features}\relax }{subsection.4.3.1}{}}
\@writefile{lof}{\contentsline {figure}{\numberline {4.14}{\ignorespaces CIn Tour: Modelo de \textit  {Feature} Parcial}}{66}{figure.4.14}}
\newlabel{fg:cintour:feature_model}{{4.14}{66}{CIn Tour: Modelo de \textit {Feature} Parcial\relax }{figure.4.14}{}}
\@writefile{toc}{\contentsline {subsection}{\numberline {4.3.2}Descrevendo Servi\IeC {\c c}os e Variabilidades}{67}{subsection.4.3.2}}
\newlabel{sec:avaliacao_preliminar:cintour:descrevendo_servicos_e_variabilidades}{{4.3.2}{67}{Descrevendo Serviços e Variabilidades\relax }{subsection.4.3.2}{}}
\@writefile{lol}{\contentsline {lstlisting}{chapters/4\textunderscore case\textunderscore study/files/cintour/services.xml}{67}{lstlisting.4.-6}}
\@writefile{lof}{\contentsline {figure}{\numberline {4.15}{\ignorespaces CIn Tour: Descritor de Servi\IeC {\c c}os}}{67}{figure.4.15}}
\newlabel{fg:avaliacao_preliminar:cintour:descritor_de_servicos}{{4.15}{67}{CIn Tour: Descritor de Serviços\relax }{figure.4.15}{}}
\acronymused{DS}
\@writefile{lol}{\contentsline {lstlisting}{chapters/4\textunderscore case\textunderscore study/files/cintour/variabilities.xml}{68}{lstlisting.4.-7}}
\@writefile{lof}{\contentsline {figure}{\numberline {4.16}{\ignorespaces CIn Tour: Descritor de Variabilidades}}{68}{figure.4.16}}
\newlabel{fg:avaliacao_preliminar:cintour:descritor_de_variabilidades}{{4.16}{68}{CIn Tour: Descritor de Variabilidades\relax }{figure.4.16}{}}
\@writefile{toc}{\contentsline {section}{\numberline {4.4}Analisando e Integrando a Aplica\IeC {\c c}\IeC {\~a}o Cliente}{68}{section.4.4}}
\newlabel{sec:avaliacao_preliminar:analisando_cliente}{{4.4}{68}{Analisando e Integrando a Aplicação Cliente\relax }{section.4.4}{}}
\@writefile{lof}{\contentsline {figure}{\numberline {4.17}{\ignorespaces Aplica\IeC {\c c}\IeC {\~a}o Cliente: Declara\IeC {\c c}\IeC {\~a}o de constantes e Intera\IeC {\c c}\IeC {\~a}o com Servi\IeC {\c c}o}}{69}{figure.4.17}}
\newlabel{fg:clientApp:AnaliseMobileCurrentCode}{{4.17}{69}{Aplicação Cliente: Declaração de constantes e Interação com Serviço\relax }{figure.4.17}{}}
\@writefile{lof}{\contentsline {figure}{\numberline {4.18}{\ignorespaces Aplica\IeC {\c c}\IeC {\~a}o Cliente: Descoberta de Servi\IeC {\c c}o por meio da biblioteca \emph  {``DymosClientLib''}}}{70}{figure.4.18}}
\newlabel{fg:clientApp:AnaliseMobileNewCode}{{4.18}{70}{Aplicação Cliente: Descoberta de Serviço por meio da biblioteca \emph {``DymosClientLib''}\relax }{figure.4.18}{}}
\@writefile{lof}{\contentsline {figure}{\numberline {4.19}{\ignorespaces Aplica\IeC {\c c}\IeC {\~a}o Cliente: Reconfigura\IeC {\c c}\IeC {\~a}o de variabilidades por meio da biblioteca \emph  {``DymosClientLib''}}}{70}{figure.4.19}}
\newlabel{fg:clientApp:AnaliseMobileReconf}{{4.19}{70}{Aplicação Cliente: Reconfiguração de variabilidades por meio da biblioteca \emph {``DymosClientLib''}\relax }{figure.4.19}{}}
\@writefile{toc}{\contentsline {section}{\numberline {4.5}Considera\IeC {\c c}\IeC {\~o}es Finais}{70}{section.4.5}}
\newlabel{sec:avaliacao_preliminar:consideracoes_finais}{{4.5}{70}{Considerações Finais\relax }{section.4.5}{}}
\acronymused{LPS}
\acronymused{LPS}
\acronymused{LPS}
\@setckpt{chapters/4_case_study/case_study_main}{
\setcounter{page}{72}
\setcounter{equation}{0}
\setcounter{enumi}{4}
\setcounter{enumii}{0}
\setcounter{enumiii}{0}
\setcounter{enumiv}{0}
\setcounter{footnote}{7}
\setcounter{mpfootnote}{0}
\setcounter{part}{0}
\setcounter{chapter}{4}
\setcounter{section}{5}
\setcounter{subsection}{0}
\setcounter{subsubsection}{0}
\setcounter{paragraph}{0}
\setcounter{subparagraph}{0}
\setcounter{figure}{19}
\setcounter{table}{1}
\setcounter{parentequation}{0}
\setcounter{@pps}{0}
\setcounter{@ppsavesec}{0}
\setcounter{@ppsaveapp}{0}
\setcounter{Def}{0}
\setcounter{Axi}{0}
\setcounter{Conj}{0}
\setcounter{Lem}{0}
\setcounter{Theo}{0}
\setcounter{Prop}{0}
\setcounter{Cor}{0}
\setcounter{NAT@ctr}{0}
\setcounter{AlgoLine}{0}
\setcounter{algocfline}{0}
\setcounter{algocfproc}{0}
\setcounter{algocf}{0}
\setcounter{lstnumber}{12}
\setcounter{float@type}{8}
\setcounter{Item}{13}
\setcounter{Hfootnote}{19}
\setcounter{bookmark@seq@number}{49}
\setcounter{lstlisting}{0}
\setcounter{section@level}{0}
}
