\relax 
\@writefile{loa}{\addvspace {10\p@ }}
\@writefile{toc}{\contentsline {chapter}{\numberline {A}Componentes Descritores}{82}{appendix.A}}
\@writefile{lof}{\addvspace {10\p@ }}
\@writefile{lot}{\addvspace {10\p@ }}
\newlabel{ap:componentes_descritores}{{A}{82}{Componentes Descritores\relax }{appendix.A}{}}
\@writefile{toc}{\contentsline {section}{\numberline {A.1}Descritor de Servi\IeC {\c c}os}{82}{section.A.1}}
\newlabel{ap:sec:descritor_servicos}{{A.1}{82}{Descritor de Serviços\relax }{section.A.1}{}}
\@writefile{lol}{\contentsline {lstlisting}{appendix/ServiceDescriptor.xsd}{82}{lstlisting.A.-8}}
\@writefile{toc}{\contentsline {section}{\numberline {A.2}Descritor de Variabilidades}{83}{section.A.2}}
\newlabel{ap:sec:descritor_variabilidades}{{A.2}{83}{Descritor de Variabilidades\relax }{section.A.2}{}}
\@writefile{lol}{\contentsline {lstlisting}{appendix/VariabilityDescriptor.xsd}{83}{lstlisting.A.-9}}
\@writefile{toc}{\contentsline {section}{\numberline {A.3}Descritor de WSDL}{84}{section.A.3}}
\newlabel{ap:sec:descritor_wsdl}{{A.3}{84}{Descritor de WSDL\relax }{section.A.3}{}}
\@writefile{lol}{\contentsline {lstlisting}{appendix/WsdlDescriptor.xsd}{84}{lstlisting.A.-10}}
\@setckpt{appendix/ap_appendix}{
\setcounter{page}{90}
\setcounter{equation}{0}
\setcounter{enumi}{4}
\setcounter{enumii}{0}
\setcounter{enumiii}{0}
\setcounter{enumiv}{0}
\setcounter{footnote}{0}
\setcounter{mpfootnote}{0}
\setcounter{part}{0}
\setcounter{chapter}{1}
\setcounter{section}{3}
\setcounter{subsection}{0}
\setcounter{subsubsection}{0}
\setcounter{paragraph}{0}
\setcounter{subparagraph}{0}
\setcounter{figure}{0}
\setcounter{table}{0}
\setcounter{parentequation}{0}
\setcounter{@pps}{0}
\setcounter{@ppsavesec}{0}
\setcounter{@ppsaveapp}{0}
\setcounter{Def}{0}
\setcounter{Axi}{0}
\setcounter{Conj}{0}
\setcounter{Lem}{0}
\setcounter{Theo}{0}
\setcounter{Prop}{0}
\setcounter{Cor}{0}
\setcounter{NAT@ctr}{66}
\setcounter{AlgoLine}{0}
\setcounter{algocfline}{0}
\setcounter{algocfproc}{0}
\setcounter{algocf}{0}
\setcounter{lstnumber}{274}
\setcounter{float@type}{8}
\setcounter{Item}{13}
\setcounter{Hfootnote}{19}
\setcounter{bookmark@seq@number}{58}
\setcounter{lstlisting}{0}
\setcounter{section@level}{0}
}
